Explore datasets with R/Python – Imago training
…
Which Local Authorities are hottest during the summer and most deprived?

R
Python

msoa_hotspots %>%
  st_drop_geometry() %>%
  count(ladnm, sort = TRUE)

# A tibble: 65 × 2
   ladnm                    n
   <chr>                <int>
 1 Hackney                 26
 2 Southampton             24
 3 Tower Hamlets           21
 4 Bristol, City of        18
 5 Islington               15
 6 Lewisham                15
 7 Greenwich               13
 8 Medway                  13
 9 Barking and Dagenham    12
10 Camden                  12
# ℹ 55 more rows
…
